Data science in insurance: an R intro
…
the data.table line developed by Matt Dowle, see e.g. DataCamp’s course on data.table.

Both have a very specific syntax, with a demanding learning curve.

6.1 Ideas from the tidyverse

6.1.1 A tibble instead of a data.frame

Within the tidyverse tibbles are a modern take on data frames. They keep the features that have stood the test of time, and drop the features that used to be convenient but are now frustrating (i.e. converting character vectors to factors). (Quote from tibble vignette) You can use tibble to create a new tibble and as_tibble transforms an object (e.g. a data frame) into a tibble.

library(ggplot2)
diamonds

# A tibble: 53,940 x 10
   carat cut       color clarity depth table price     x     y     z
   <dbl> <ord>     <ord> <ord>   <dbl> <dbl> <int> <dbl> <dbl> <dbl>
 1 0.23  Ideal     E     SI2      61.5    55   326  3.95  3.98  2.43
 2 0.21  Premium   E     SI1      59.8    61   326  3.89  3.84  2.31
 3 0.23  Good      E     VS1      56.9    65   327  4.05  4.07  2.31
 4 0.290 Premium   I     VS2      62.4    58   334  4.2   4.23  2.63
 5 0.31  Good      J     SI2      63.3    58   335  4.34  4.35  2.75
 6 0.24  Very Good J     VVS2     62.8    57   336  3.94  3.96  2.48
 7 0.24  Very Good I     VVS1     62.3    57   336  3.95  3.98  2.47
 8 0.26  Very Good H     SI1      61.9    55   337  4.07  4.11  2.53
 9 0.22  Fair      E     VS2      65.1    61   337  3.87  3.78  2.49
10 0.23  Very Good H     VS1      59.4    61   338  4     4.05  2.39
# ... with 53,930 more rows
…
The following object is masked from 'package:car':

    recode

The following objects are masked from 'package:stats':

    filter, lag

The following objects are masked from 'package:base':

    intersect, setdiff, setequal, union

diamonds %>% filter(cut == "Ideal")

# A tibble: 21,551 x 10
   carat cut   color clarity depth table price     x     y     z
   <dbl> <ord> <ord> <ord>   <dbl> <dbl> <int> <dbl> <dbl> <dbl>
 1  0.23 Ideal E     SI2      61.5    55   326  3.95  3.98  2.43
 2  0.23 Ideal J     VS1      62.8    56   340  3.93  3.9   2.46
 3  0.31 Ideal J     SI2      62.2    54   344  4.35  4.37  2.71
 4  0.3  Ideal I     SI2      62      54   348  4.31  4.34  2.68
 5  0.33 Ideal I     SI2      61.8    55   403  4.49  4.51  2.78
 6  0.33 Ideal I     SI2      61.2    56   403  4.49  4.5   2.75
 7  0.33 Ideal J     SI1      61.1    56   403  4.49  4.55  2.76
 8  0.23 Ideal G     VS1      61.9    54   404  3.93  3.95  2.44
 9  0.32 Ideal I     SI1      60.9    55   404  4.45  4.48  2.72
10  0.3  Ideal I     SI2      61      59   405  4.3   4.33  2.63
# ... with 21,541 more rows

The code chunk above will translate to something like “you take the diamonds data, then you subset the data”. This is one of the most powerful things about the tidyverse. In fact, having a standardized chain of processing actions is called “a pipeline”.

Here is another example where you now filter diamonds based on two characteristics.

diamonds %>% filter(cut == "Ideal" & color == "E")

# A tibble: 3,903 x 10
   carat cut   color clarity depth table price     x     y     z
   <dbl> <ord> <ord> <ord>   <dbl> <dbl> <int> <dbl> <dbl> <dbl>
 1  0.23 Ideal E     SI2      61.5    55   326  3.95  3.98  2.43
 2  0.26 Ideal E     VVS2     62.9    58   554  4.02  4.06  2.54
 3  0.7  Ideal E     SI1      62.5    57  2757  5.7   5.72  3.57
 4  0.59 Ideal E     VVS2     62      55  2761  5.38  5.43  3.35
 5  0.74 Ideal E     SI2      62.2    56  2761  5.8   5.84  3.62
 6  0.7  Ideal E     VS2      60.7    58  2762  5.73  5.76  3.49
 7  0.74 Ideal E     SI1      62.3    54  2762  5.8   5.83  3.62
 8  0.7  Ideal E     SI1      60.9    57  2768  5.73  5.76  3.5 
 9  0.6  Ideal E     VS1      61.7    55  2774  5.41  5.44  3.35
10  0.7  Ideal E     SI1      62.7    55  2774  5.68  5.74  3.58
# ... with 3,893 more rows

diamonds %>% filter(cut == "Ideal" & color %in% c("E", "D"))

# A tibble: 6,737 x 10
   carat cut   color clarity depth table price     x     y     z
   <dbl> <ord> <ord> <ord>   <dbl> <dbl> <int> <dbl> <dbl> <dbl>
 1  0.23 Ideal E     SI2      61.5    55   326  3.95  3.98  2.43
 2  0.3  Ideal D     SI1      62.5    57   552  4.29  4.32  2.69
 3  0.3  Ideal D     SI1      62.1    56   552  4.3   4.33  2.68
 4  0.26 Ideal E     VVS2     62.9    58   554  4.02  4.06  2.54
 5  0.7  Ideal E     SI1      62.5    57  2757  5.7   5.72  3.57
 6  0.59 Ideal E     VVS2     62      55  2761  5.38  5.43  3.35
 7  0.74 Ideal E     SI2      62.2    56  2761  5.8   5.84  3.62
 8  0.7  Ideal E     VS2      60.7    58  2762  5.73  5.76  3.49
 9  0.71 Ideal D     SI2      62.3    56  2762  5.73  5.69  3.56
10  0.74 Ideal E     SI1      62.3    54  2762  5.8   5.83  3.62
# ... with 6,727 more rows
…
# A tibble: 5 x 2
  cut        mean
  <ord>     <dbl>
1 Fair      4359.
2 Good      3929.
3 Very Good 3982.
4 Premium   4584.
5 Ideal     3458.

Now you want to group by multiple variables.

diamonds %>% group_by(cut, color) %>% summarize(price = mean(price))

# A tibble: 35 x 3
# Groups:   cut [?]
   cut   color price
   <ord> <ord> <dbl>
 1 Fair  D     4291.
 2 Fair  E     3682.
 3 Fair  F     3827.
 4 Fair  G     4239.
 5 Fair  H     5136.
 6 Fair  I     4685.
 7 Fair  J     4976.
 8 Good  D     3405.
 9 Good  E     3424.
10 Good  F     3496.
# ... with 25 more rows
…
# A tibble: 5 x 3
  cut       price carat
  <ord>     <dbl> <dbl>
1 Fair      4359. 1.05 
2 Good      3929. 0.849
3 Very Good 3982. 0.806
4 Premium   4584. 0.892
5 Ideal     3458. 0.703

And finally, multiple metrics and multiple grouping variables.

diamonds %>% group_by(cut, color) %>% summarize(price = mean(price), carat = mean(carat))

# A tibble: 35 x 4
# Groups:   cut [?]
   cut   color price carat
   <ord> <ord> <dbl> <dbl>
 1 Fair  D     4291. 0.920
 2 Fair  E     3682. 0.857
 3 Fair  F     3827. 0.905
 4 Fair  G     4239. 1.02 
 5 Fair  H     5136. 1.22 
 6 Fair  I     4685. 1.20 
 7 Fair  J     4976. 1.34 
 8 Good  D     3405. 0.745
 9 Good  E     3424. 0.745
10 Good  F     3496. 0.776
# ... with 25 more rows
…
# what would be the alternative with base R?
subset(diamonds, diamonds$cut=="Ideal" && diamonds$color==c("E", "D"))

# A tibble: 53,940 x 10
   carat cut       color clarity depth table price     x     y     z
   <dbl> <ord>     <ord> <ord>   <dbl> <dbl> <int> <dbl> <dbl> <dbl>
 1 0.23  Ideal     E     SI2      61.5    55   326  3.95  3.98  2.43
 2 0.21  Premium   E     SI1      59.8    61   326  3.89  3.84  2.31
 3 0.23  Good      E     VS1      56.9    65   327  4.05  4.07  2.31
 4 0.290 Premium   I     VS2      62.4    58   334  4.2   4.23  2.63
 5 0.31  Good      J     SI2      63.3    58   335  4.34  4.35  2.75
 6 0.24  Very Good J     VVS2     62.8    57   336  3.94  3.96  2.48
 7 0.24  Very Good I     VVS1     62.3    57   336  3.95  3.98  2.47
 8 0.26  Very Good H     SI1      61.9    55   337  4.07  4.11  2.53
 9 0.22  Fair      E     VS2      65.1    61   337  3.87  3.78  2.49
10 0.23  Very Good H     VS1      59.4    61   338  4     4.05  2.39
# ... with 53,930 more rows
…
